# 3ds Max Wavefront OBJ Exporter v0.97b - (c)2007 guruware
# File Created: 22.03.2019 02:21:51

newmtl humus_Material_u1_v1
	Ns 0.000000
	Ni 1.500000
	d 1.000000
	Tr 0.000000
	Tf 1.000000 1.000000 1.000000 
	illum 2
	Ka 1.000000 1.000000 1.000000
	Kd 1.000000 1.000000 1.000000
	Ks 0.000000 0.000000 0.000000
	Ke 0.000000 0.000000 0.000000
	map_Ka humus_u1_v1.jpg
	map_Kd humus_u1_v1.jpg

newmtl Material__35
	Ns 9.999999
	Ni 1.500000
	d 1.000000
	Tr 0.000000
	Tf 1.000000 1.000000 1.000000 
	illum 2
	Ka 0.588000 0.588000 0.588000
	Kd 0.588000 0.588000 0.588000
	Ks 0.000000 0.000000 0.000000
	Ke 0.000000 0.000000 0.000000
	map_Ka WoodPlateTexture.jpg
	map_Kd WoodPlateTexture.jpg
