# 
# Wavefront material file
# Created in RealityCapture v1.0.3.4658
# www.capturingreality.com
# 

newmtl HumusBoll_Material
Ka 1 1 1
Kd 1 1 1
d 1
Ns 0
illum 1

newmtl HumusBoll_Material_u1_v1
Ka 1 1 1
Kd 1 1 1
d 1
Ns 0
illum 1
map_Kd HumusBoll_u1_v1.jpeg
