<?xml version="1.0" encoding="UTF-8"?>
<svg width="16px" height="25px" viewBox="0 0 16 25" version="1.1" xmlns="http://www.w3.org/2000/svg" xmlns:xlink="http://www.w3.org/1999/xlink">
    <!-- Generator: sketchtool 52.2 (67145) - http://www.bohemiancoding.com/sketch -->
    <title>376DCCDB-90FC-453D-921B-AD940755B030</title>
    <desc>Created with sketchtool.</desc>
    <g id="Page-1" stroke="none" stroke-width="1" fill="none" fill-rule="evenodd">
        <g id="Desktop" transform="translate(-622.000000, -499.000000)" fill="#00A082">
            <g id="Group-5-Copy" transform="translate(407.000000, 486.000000)">
                <g id="glovo" transform="translate(215.000000, 13.000000)">
                    <path d="M8,7.90502731e-16 C3.58863086,7.90502731e-16 0,3.50813023 0,7.81799674 C0,9.45991846 0.522191339,11.0363342 1.50847306,12.3763588 L1.72150991,12.6647275 L5.88612929,18.4086054 C5.88612929,18.4086054 6.39469201,19.22031 7.50291401,19.22031 L8.49780328,19.22031 C9.60674258,19.22031 10.1131534,18.4086054 10.1131534,18.4086054 L14.2792074,12.6647275 L14.4900924,12.3763588 C15.4709054,11.0559664 16.0000402,9.45852573 16,7.81799674 C16,3.50813023 12.4113691,0 8,0 Z M11.2923877,10.1263706 L11.0707433,10.4296918 L8.0007173,14.6640841 L4.93499507,10.4382361 L4.70976419,10.1313548 C4.21057027,9.4617458 3.94058705,8.65101427 3.93938851,7.81799674 C3.93938851,5.62995448 5.76131982,3.84990058 7.9992827,3.84990058 C10.2386802,3.84990058 12.0598942,5.62995448 12.0598942,7.81799674 C12.0598942,8.64750186 11.7944948,9.44567803 11.2923877,10.1263706 Z M5.74984309,22.7469528 L5.74984309,22.7312883 C5.74984309,21.563573 6.69882543,20.5959357 7.98063301,20.5959357 C9.26387519,20.5959357 10.2049673,21.5471965 10.2049673,22.7156239 L10.2049673,22.7312883 C10.2049673,23.8904594 9.25526764,24.8573847 7.9655698,24.8573847 C6.69236977,24.8573847 5.7491258,23.9068359 5.7491258,22.7469528 L5.74984309,22.7469528 Z" id="Shape"></path>
                </g>
            </g>
        </g>
    </g>
</svg>