# 3ds Max Wavefront OBJ Exporter v0.97b - (c)2007 guruware
# File Created: 19.03.2019 13:50:05

newmtl RollClassic_Material_u1_v1
	Ns 0.000000
	Ni 1.500000
	d 1.000000
	Tr 0.000000
	Tf 1.000000 1.000000 1.000000 
	illum 2
	Ka 1.000000 1.000000 1.000000
	Kd 1.000000 1.000000 1.000000
	Ks 0.000000 0.000000 0.000000
	Ke 0.000000 0.000000 0.000000
	map_Ka RollClassic_u1_v1.jpg
	map_Kd RollClassic_u1_v1.jpg

newmtl Woldplate_Material_u1_v1
	Ns 0.000000
	Ni 1.500000
	d 1.000000
	Tr 0.000000
	Tf 1.000000 1.000000 1.000000 
	illum 2
	Ka 1.000000 1.000000 1.000000
	Kd 1.000000 1.000000 1.000000
	Ks 0.000000 0.000000 0.000000
	Ke 0.000000 0.000000 0.000000
	map_Ka Woldplate_u1_v1.jpg
	map_Kd Woldplate_u1_v1.jpg
